﻿[
    {
        "_id":"c-10",
        "_parentId":"b-10",
        "_type":"component",
        "_component":"text",
        "_classes":"",
        "_layout":"full",
        "title":"",
        "displayTitle":"إثارة انتباه الأشخاص بصريًا من خلال الصور ومقاطع الفيديو التي تحكي قصة نشاطك التجاري",
        "body":"",
        "instruction":"",
        "_pageLevelProgress": {
        "_isEnabled": false
        }
    },
    {
        "_id":"c-11",
        "_parentId":"b-10",
        "_type":"component",
        "_component":"graphic",
        "_classes":"",
        "_layout":"left",
        "title":"",
        "displayTitle":"",
        "body":"",
        "instruction":"",
        "_graphic": {
            "alt": "نص بديل",
            "title": "نص العنوان",
            "src": "course/en/images/01_instagram_for_business/kitkat.png"
        },
        "_pageLevelProgress": {
        "_isEnabled": false
        }
    },
    {
        "_id":"c-12",
        "_parentId":"b-10",
        "_type":"component",
        "_component":"text",
        "_classes":"",
        "_layout":"right",
        "title":"إثارة انتباه الأشخاص بصريًا من خلال الصور ومقاطع الفيديو التي تحكي قصة نشاطك التجاري",
        "displayTitle":"",
        "body":"<br>بالنسبة إلى الأنشطة التجارية، يمثل Instagram مكانًا يساعد فيه التعبير بعناصر بصرية على إلهام الأشخاص وتشجيعهم على اتخاذ إجراء ملموس.<br><br>على Instagram، يمكن للأنشطة التجارية التواصل مع الأشخاص بشأن أوجه شغفهم، ومنحهم تجارب بصرية شاملة، وتشجيعهم على الاستكشاف.",
        "instruction":"",
        "_pageLevelProgress": {
        "_isEnabled": true
        }
    },
    {
        "_id":"c-15",
        "_parentId":"b-15",
        "_type":"component",
        "_component":"text",
        "_classes":"",
        "_layout":"full",
        "title":"تجربة سلسة",
        "displayTitle":"تجربة سلسة",
        "body":"على Instagram، يظهر محتوى المعلنين في الموجز متماشيًا مع المحتوى المحيط، في نفس المكان الذي يطالع فيه الأشخاص المحتوى الذي يتابعونه.<br><br>وتتمثل ميزة الإعلان على Instagram في أن التجربة الإعلانية يمكن أن تتوافق بسلاسة تامة مع المحتوى الذي ينشره أعضاء المجتمع. وعندما تستخدم الأنشطة التجارية الوسائط البصرية الثرية والمشاعر لمشاركة قصتها على Instagram، لا تبدو إعلاناتها كالإعلانات.<br><br> يمثل Instagram المكان الذي يلجأ إليه الأشخاص للاستكشاف واستلهام الأفكار.  على Instagram، تصل رسالتك إلى الأشخاص في المكان الذي يلجئون إليه لمتابعة شغفهم واستكشاف العالم من خلال الصور ومقاطع الفيديو. ولهذه الأسباب، يمثل Instagram بيئة ملائمة للغاية لمشاركة قصة علامتك التجارية أو لعرض منتجاتك أو تطبيقاتك أو خدماتك." ,
        "instruction":"",
        "_pageLevelProgress": {
        "_isEnabled": true
        }
    },
    {
        "_id":"c-20",
        "_parentId":"b-20",
        "_type":"component",
        "_component":"text",
        "_classes":"",
        "_layout":"full",
        "title":"ما الفرصة المتاحة للأنشطة التجارية على Instagram؟",
        "displayTitle":"ما الفرصة المتاحة للأنشطة التجارية على Instagram؟",
        "body":"تمثل الأنشطة التجارية جزءًا من مجتمع Instagram منذ البداية.  منذ 2013، تستخدم العديد من الأنشطة التجارية إعلانات Instagram للتواصل بنجاح مع جمهورها والتفاعل معه عبر الصور ومقاطع الفيديو الجميلة.  اليوم، يصل أكثر من مليوني معلن<sup>1</sup> إلى عملائهم على Instagram باستخدام الإعلانات التي توقد شعلة الاهتمامات المختلفة لأفراد المجتمع.  ومع تواجد جمهور عالمي متنوع على Instagram، تحقق الأنشطة التجارية بمختلف أحجامها النجاح باستخدام إمكانات الاستهداف والعرض البصري للقصص التي تتوفر للحملات الإعلانية على Instagram." ,
        "instruction":"",
        "_pageLevelProgress": {
        "_isEnabled": true
        }
    },
    {
        "_id":"c-21",
        "_parentId":"b-20",
        "_type":"component",
        "_component":"canvas-animation",
        "_classes":"",
        "_layout":"full",
        "title":"النتائج",
        "displayTitle":"",
        "animationName":"TestAnimation",
        "animation":"course/en/animations/test/testAnimation.js",
        "body":"<div id='TestAnimation'></div>",
        "_resources": {
            "leftImage":"course/en/images/01_instagram_for_business/stat1.png",
            "centerImage":"course/en/images/01_instagram_for_business/stat2.png",
            "rightImage":"course/en/images/01_instagram_for_business/stat3.png",
            "leftText":"من الحسابات تتابع نشاطًا تجاريًا على Instagram.",
            "centerText":"يكتشفون\nمنتجات جديدة\nعلى Instagram",
            "rightText":"يتخذون إجراء بعد مشاهدة\nمنشور."
        },
        "instruction":"",
        "_pageLevelProgress": {
        "_isEnabled": false
        }
    },
    {
        "_id":"c-22",
        "_parentId":"b-20",
        "_type":"component",
        "_component":"animate-message",
        "_classes":"",
        "_layout":"full",
        "title":"",
        "displayTitle":"",
        "body":"<h2>فرص هائلة للفيديو على Instagram</h2>",
        "instruction":"",
        "titleAnimation":"transition.slideRightIn",
        "bodyAnimation":"transition.slideLeftIn",
        "backgroundColor":"#4080ff,#4080ff,#4080ff",
        "_spacing":"20px",
        "_pageLevelProgress": {
            "_isEnabled": true
        },
        "_items": [
            {
                "body":"<div style='padding-left:20px;padding-right:15px;padding-top:20px; color:#ffffff;'>يزيد الوقت الذي يمضيه الأشخاص في مشاهدة الفيديو على Instagram أكثر من 80% عامًا بعد عام.<sup>5</sup></div>"
            },
            {
                "body":"<div style='padding-left:20px;padding-right:15px;padding-top:20px; color:#ffffff;'>يزيد عدد مقاطع الفيديو المنتجة يوميًا على Instagram أكثر من 4 أضعاف عامًا بعد عام.<sup>6</sup></div>"
            },
            {
                "body":"<div style='padding-left:20px;padding-right:15px;padding-top:20px; color:#ffffff;'>يتم تشغيل الصوت في أكثر من 60% من مقاطع فيديو القصص.<sup>7</sup></div>"
            }
        ]
    },
    {
        "_id":"c-23",
        "_parentId":"b-20",
        "_type":"component",
        "_component":"text",
        "_classes":"",
        "_layout":"full",
        "title":"المساعدة التي يقدمها Instagram إلى نشاطك التجاري",
        "displayTitle":"المساعدة التي يقدمها Instagram إلى نشاطك التجاري",
        "body":"يمكن أن يساعد فيسبوك نشاطك التجاري بمجموعة من الطرق مثل:<br><br><ul><li>الوصول إلى عملائك على نطاق واسع عبر بيئة على قدر كبير من الإبداع.</li><li>زيادة الوعي والاهتمام ونية الشراء للمنتجات والحملات الإعلانية الجديدة.</li><li>عرض منتجاتك أو تطبيقاتك أو خدماتك في المكان الذي يلجأ إليه الأشخاص للحصول على الإلهام البصري.</li><li>زيادة النقرات والتحويلات بموقع الويب.</li><li>زيادة عمليات تثبيت تطبيق الهواتف المحمولة والتفاعل معه.</li><li>نقل الأشخاص داخل المسار من الوعي إلى اتخاذ إجراء.</li></ul><br>حققت الأنشطة التجارية النجاح على Instagram باستخدام تصميمات مناسبة للجمهور تتماشى مع روح المنصة.  ويمكنك استخدام العناصر البصرية لجذب المشاعر وإلهام أفراد المجتمع والتشجيع على اتخاذ إجراء.<br><br>لمزيد من الأفكار الملهمة، تفضل بزيارة موقع <a href='https://business.instagram.com/' target='_blank'>Instagram للأعمال</a> على الويب.<br><br><hr><cite><sup>1</sup>بيانات داخلية من Instagram، سبتمبر 2017<br><sup>2</sup>بيانات داخلية من Instagram، أبريل 2017<br><sup>3 و4</sup>بيانات داخلية من Instagram، مارس 2017<br><sup>5 و6</sup>بيانات داخلية من Instagram، يونيو 2017<br><sup>7</sup>بيانات داخلية من Instagram، يوليو 2017<br></cite>" ,
        "instruction":"",
        "_pageLevelProgress": {
        "_isEnabled": true
        }
    },
    {
        "_id":"c-25",
        "_parentId":"b-25",
        "_type":"component",
        "_component":"co-jump",
        "_classes":"color-test",
        "_preLinkBody":"والآن، لنلقي نظرة على ",
        "_linkBody":"أفضل ممارسات تصميمات الإعلانات",
        "_postLinkBody":" على Instagram.",
        "_link":"#/id/co-10",
        "_graphic":"adapt/css/assets/icon_nextPage.png",
        "_pageLevelProgress": {
            "_isEnabled": false
        }
    },
    {
        "_id":"c-50",
        "_parentId":"b-50",
        "_type":"component",
        "_component":"text",
        "_classes":"",
        "_layout":"full",
        "title":"أفضل ممارسات تصميمات الإعلانات",
        "displayTitle":"",
        "body":"كانت الصور دائمًا هي وسيلة التواصل البصري على Instagram؛ واليوم، أصبحنا نشاهد مقاطع الفيديو بوتيرة متزايدة على المنصة.  وبالنسبة إلى العلامات التجارية، يمثل توجيه رسالة قوية باستخدام العناصر البصرية عاملاً أساسيًا في تحقيق نتائج تجارية حقيقة على منصاتنا. الأخبار الجيدة: لا ترتبط أفضل ممارسات التواصل الفعال على Instagram بزمن محدد، إذ يجب دومًا أن تعكس العناصر البصرية المستخدمة علامتك التجارية بوضوح وأن تكون مبنية على قصة وبتصميم جيد واستهداف دقيق. وقد وجدنا أنه يمكن تحقيق النتائج التي تهمك باتباع أكثر من نهج - من إعادة استخدام أصول موجودة إلى استخدام تصميمات مخصصة بمستويات تكلفة مختلفة. ونعرض فيما يلي مجموعة من أفضل الإرشادات وممارسات التصميم.",
        "instruction":"",
        "_pageLevelProgress": {
        "_isEnabled": true
        }
    },
    {
        "_id":"c-55",
        "_parentId":"b-55",
        "_type":"component",
        "_component":"animate-message",
        "_classes":"",
        "_layout":"full",
        "title":"البدء بهدف واضح وفكرة مبتكرة",
        "displayTitle":"",
        "body":"",
        "instruction":"",
        "titleAnimation":"transition.slideRightIn",
        "bodyAnimation":"transition.slideLeftIn",
        "backgroundColor":"#ffffff,#ffffff,#ffffff",
        "_spacing":"20px",
        "_pageLevelProgress": {
        "_isEnabled": true
        },
        "_items": [
            {
                "item_title": "<b>البدء بهدف واضح وفكرة مبتكرة</b>",
                "body":"<br><img src='course/en/images/02_creative_best_practices/frooti_oct2015.png' style='float:left;width:280px;height:283px;padding-right:10px;'><div style='min-height:283;'' >تتميز الإعلانات الجذابة على Instagram بفكرة قوية ترتبط بهدف واضح. وسواء كنت تعمل على زيادة الوعي بالعلامة التجارية أو زيادة نقرات موقع الويب أو عمليات تثبيت التطبيق، فاحرص على ابتكار أفكار تتماشى مع هدف حملتك الإعلانية."
            }
        ]
    },
    {
        "_id":"c-56",
        "_parentId":"b-55",
        "_type":"component",
        "_component":"animate-message",
        "_classes":"",
        "_layout":"full",
        "title":"الإعلان عن شكل العلامة التجارية ومضمونها",
        "displayTitle":"",
        "body":"",
        "instruction":"",
        "titleAnimation":"transition.slideRightIn",
        "bodyAnimation":"transition.slideLeftIn",
        "backgroundColor":"#ffffff,#ffffff,#ffffff",
        "_spacing":"20px",
        "_pageLevelProgress": {
        "_isEnabled": true
        },
        "_items": [
        {
            "item_title": "<br><b>الإعلان عن شكل العلامة التجارية ومضمونها</b>",
            "body":"<br><img src='course/en/images/02_creative_best_practices/mcdonaldstw_dec2015.png' style='float:right;padding-right:10px; width:280px;height:283px;padding-left:10px;'>اجعل إعلاناتك تحمل طابع العلامة التجارية، وتحافظ على ثبات علامتك التجارية عبر كل الحملات الإعلانية. واحرص على إضافة عناصر ربط بين الصور ومقاطع الفيديو التي تنشرها - مثل تدرج لوني أو تركيبة أو نمط تصوير فوتوغرافي مميز - ليكون من السهل التعرف على نشاطك التجاري.</li></ul>"
            }
        ]
    },
    {
        "_id":"c-57",
        "_parentId":"b-55",
        "_type":"component",
        "_component":"animate-message",
        "_classes":"",
        "_layout":"full",
        "title":"التركيز على التصميم الجيد",
        "displayTitle":"",
        "body":"",
        "instruction":"",
        "titleAnimation":"transition.slideRightIn",
        "bodyAnimation":"transition.slideLeftIn",
        "backgroundColor":"#ffffff,#ffffff,#ffffff",
        "_spacing":"20px",
        "_pageLevelProgress": {
        "_isEnabled": true
        },
        "_items": [
            {
                "item_title": "<b>التركيز على التصميم الجيد</b>",
                "body":"<br><img src='course/en/images/02_creative_best_practices/guerlain_jul2015.png' style='float:left;width:280px;height:283px;padding-right:10px;'>استخدم إعلانات جيدة التصميم لتحسين وجود نشاطك التجاري على Instagram. تحقق الإعلانات نتائج أفضل عند اختيار لقطات جيدة ومثيرة للاهتمام وذات طبيعة فنية. فما تقوم بإنشائه يجب أن يجذب الأشخاص ويجعلهم في تطلع إلى المزيد."
            }
        ]
    },
    {
        "_id":"c-71",
        "_parentId":"b-60",
        "_type":"component",
        "_component":"co-jump",
        "_classes":"color-test",
        "_preLinkBody":"والآن، لنلقي نظرة على ",
        "_linkBody":"نصائح للمعلنين",
        "_postLinkBody":".",
        "_link":"#/id/co-15",
        "_graphic":"adapt/css/assets/icon_nextPage.png",
        "_pageLevelProgress": {
            "_isEnabled": false
        }
    },
    {
        "_id":"c-100",
        "_parentId":"b-100",
        "_type":"component",
        "_component":"text",
        "_classes":"",
        "_layout":"full",
        "title":"",
        "displayTitle":"",
        "body":"على Instagram، يمكن للمعلنين الإجابة عن أسئلة عن أنشطتهم التجارية مثل <i>ما</i> و<i>كيف</i> و<i>لماذا</i> وهو الأكثر أهمية.",
        "instruction":"",
        "_pageLevelProgress": {
        "_isEnabled": false
        }
    },
    {
        "_id": "c-105",
        "_parentId":"b-110",
        "_type":"component",
        "_component":"reveal",
        "_classes":"",
        "_layout":"left",
        "_direction":"right",
        "_hideControl":true,
        "title": "الإجابة عن أسئلة ما وكيف ولماذا بشأن نشاطك التجاري",
        "displayTitle": "",
        "body": "  ",
        "height": "386px",
        "first": {
            "src": "course/en/images/03_tips_for_advertisers/reveals/reveal_image_left.png",
            "alt": "",
            "title": "",
            "body": "<b>انقر على السهم المقابل لكل صورة لتتعرف على المزيد.</b>",
            "centerText":true,
            "_maxCharacters": 30,
            "moreText": ""
        },
        "second": {
            "src": "course/en/images/03_tips_for_advertisers/reveals/reveal_image_left.png",
            "alt": "",
            "title": "",
            "body": "",
            "centerText":true,
            "_maxCharacters": 40,
            "moreText": ""
        },
        "control": {
            "showText": "إظهار",
            "hideText": "إخفاء"
        },
        "_pageLevelProgress": {
            "_isEnabled": true
        }
    },
    {
        "_id": "c-110",
        "_parentId":"b-110",
        "_type":"component",
        "_component":"reveal",
        "_classes":"",
        "_layout":"right",
        "_direction":"right",
        "title": "ماذا",
        "displayTitle": "",
        "body": "  ",
        "height": "386px",
        "first": {
            "src": "course/en/images/03_tips_for_advertisers/reveals/reveal_1_1.png",
            "alt": "",
            "title": "",
            "body": "<b>ماذا</b>",
            "centerText":false,
            "_maxCharacters": 10,
            "moreText": "المزيد"
        },
        "second": {
            "src": "course/en/images/03_tips_for_advertisers/reveals/reveal_1_2.png",
            "alt": "",
            "title": "",
            "body": "ما المنتج أو التطبيق أو الخدمة التي تقدمها؟",
            "centerText":true,
            "_maxCharacters": 50,
            "moreText": "المزيد"
        },
        "control": {
            "showText": "إظهار",
            "hideText": "إخفاء"
        },
        "_pageLevelProgress": {
            "_isEnabled": true
        }
    },
    {
        "_id": "c-111",
        "_parentId":"b-110",
        "_type":"component",
        "_component":"reveal",
        "_classes":"",
        "_layout":"left",
        "_direction":"right",
        "title": "كيف",
        "displayTitle": "",
        "body": "  ",
        "height": "386px",
        "first": {
            "src": "course/en/images/03_tips_for_advertisers/reveals/reveal_2_1.png",
            "alt": "",
            "title": "",
            "body": "<b>كيف</b>",
            "centerText":false,
            "_maxCharacters": 10,
            "moreText": "المزيد"
        },
        "second": {
            "src": "course/en/images/03_tips_for_advertisers/reveals/reveal_2_2.png",
            "alt": "",
            "title": "",
            "body": "كيف يُستخدم المنتج أو التطبيق أو الخدمة التي تقدمها؟",
            "centerText":true,
            "_maxCharacters": 50,
            "moreText": "المزيد"
        },
        "control": {
            "showText": "إظهار",
            "hideText": "إخفاء"
        },
        "_pageLevelProgress": {
            "_isEnabled": true
        }
    },
    {
        "_id": "c-112",
        "_parentId":"b-110",
        "_type":"component",
        "_component":"reveal",
        "_classes":"",
        "_layout":"right",
        "_direction":"right",
        "title": "لماذا",
        "displayTitle": "",
        "body": "  ",
        "height": "386px",
        "first": {
            "src": "course/en/images/03_tips_for_advertisers/reveals/reveal_3_1.png",
            "alt": "",
            "title": "",
            "body": "<b>لماذا</b>",
            "centerText":false,
            "_maxCharacters": 10,
            "moreText": "المزيد"
        },
        "second": {
            "src": "course/en/images/03_tips_for_advertisers/reveals/reveal_3_2.png",
            "alt": "",
            "title": "",
            "body": "لماذا يفترض بذلك أن يتناغم مع الجمهور أو يلهمه؟",
            "centerText":true,
            "_maxCharacters": 50,
            "moreText": "المزيد"
        },
        "control": {
            "showText": "إظهار",
            "hideText": "إخفاء"
        },
        "_pageLevelProgress": {
            "_isEnabled": true
        }
    },
    {
        "_id":"c-115",
        "_parentId":"b-115",
        "_type":"component",
        "_component":"animate-message",
        "_classes":"",
        "_layout":"full",
        "title":"1. ابدأ بأهداف واضحة",
        "displayTitle":"",
        "body":"",
        "instruction":"",
        "titleAnimation":"transition.slideRightIn",
        "bodyAnimation":"transition.slideLeftIn",
        "backgroundColor":"#ffffff,#ffffff,#ffffff",
        "_spacing":"20px",
        "_pageLevelProgress": {
        "_isEnabled": true
        },
        "_items": [
            {
                "item_title": "",
                "body":"<br><img src='course/en/images/03_tips_for_advertisers/goal.png' style='float:left;width:280px;height:283px;padding-right:10px;'><div style='min-height:283;'><br><b>1. ابدأ بأهداف واضحة</b><br><br>فكر في كيفية تناسق Instagram مع استراتيجيتك التسويقية الشاملة.  هل تهدف إلى زيادة الوعي أو تغيير نظرة الأشخاص لعلامتك التجارية أو الوصول إلى جماهير جديدة؟<br><br>اختر هدفًا أو هدفين يمكن تحقيقهما بالتواصل مع مجتمع Instagram الذي يتميز بدرجة عالية من الإبداع والتعبير بعناصر بصرية."
            }
        ]
    },
    {
        "_id":"c-116",
        "_parentId":"b-115",
        "_type":"component",
        "_component":"animate-message",
        "_classes":"",
        "_layout":"full",
        "title":"2. اختر موضوعات تساعد على عرض قصص مترابطة",
        "displayTitle":"",
        "body":"",
        "instruction":"",
        "titleAnimation":"transition.slideRightIn",
        "bodyAnimation":"transition.slideLeftIn",
        "backgroundColor":"#ffffff,#ffffff,#ffffff",
        "_spacing":"20px",
        "_pageLevelProgress": {
        "_isEnabled": true
        },
        "_items": [
        {
            "item_title": "",
            "body":"<br><img src='course/en/images/03_tips_for_advertisers/story.png' style='float:left;width:280px;height:283px;padding-right:10px;'><div style='min-height:283;'><br><b>2. اختر موضوعات تساعد على عرض قصص مترابطة</b><br><br>اختر موضوعات قصص تمثل علامتك التجارية وتحقق أفضل النتائج عند عرضها باستخدام صور ومقاطع فيديو جذابة.<br><br>وقم بإنشاء منشورات تتبع هذه الموضوعات لتقديم محتوى متنوع يتميز بالاتساق مع مرور الوقت."
            }
        ]
    },
    {
        "_id":"c-117",
        "_parentId":"b-115",
        "_type":"component",
        "_component":"animate-message",
        "_classes":"",
        "_layout":"full",
        "title":"3. خصص الوقت الكافي لإنشاء محتوى عالي الجودة",
        "displayTitle":"",
        "body":"",
        "instruction":"",
        "titleAnimation":"transition.slideRightIn",
        "bodyAnimation":"transition.slideLeftIn",
        "backgroundColor":"#ffffff,#ffffff,#ffffff",
        "_spacing":"20px",
        "_pageLevelProgress": {
        "_isEnabled": true
        },
        "_items": [
            {
                "item_title": "",
                "body":"<br><img src='course/en/images/03_tips_for_advertisers/quality.png' style='float:left;width:280px;height:283px;padding-right:10px;'><div style='min-height:283;'><br><b>3. خصص الوقت الكافي لإنشاء محتوى عالي الجودة</b><br><br>احرص على إنتاج صور ومقاطع فيديو بتصميمات جيدة تناسب منصتنا.<br><br>وخصص الوقت الكافي لتتعلم من العلامات التجارية الأخرى ومن أشهر مستخدمي Instagram واتبع خطواتهم."
            }
        ]
    },
    {
      "_id": "c-120",
      "_parentId":"b-120",
      "_classes": "",
      "_type":"component",
      "_component": "hotgraphic",
      "_layout": "full",
      "title": "نصائح أخرى لبدء الاستخدام",
      "displayTitle": "نصائح أخرى لبدء الاستخدام",
      "body": "انقر على النقاط التالية لتطلع على بعض النصائح الإضافية لبدء استخدام Instagram.",
      "mobileBody": "",
      "instruction":"",
      "_setCompletionOn":"inview",
      "_pageLevelProgress": {
        "_isEnabled": true
        },
      "_useGraphicsAsPins": false,
      "_canCycleThroughPagination": false,
      "_graphic": {
        "src": "course/en/images/03_tips_for_advertisers/stancesocks.png",
        "alt": "",
        "title": "العنوان"
      },
      "_items": [
        {
            "title": "صورة الملف الشخصي",
            "body": "البساطة هي الأفضل! نوصي باستخدام شعار نشاطك التجاري أو رمزًا رسوميًا. وتذكر أنه سيتم اقتصاصه إلى دائرة وسيظهر كصورة بمقياس 150 × 150 بيكسل (صغيرة تمامًا) على معظم الهواتف المحمولة.",
            "strapline": "صورة الملف الشخصي",
            "_graphic": {
                "src": "course/en/images/03_tips_for_advertisers/hotImage/profile_photo.png",
                "alt": "نص بديل",
                "title": "نص العنوان",
                "_classes": "cols-2 rows-1"
            },
            "_top": 6,
            "_left": 3
        },
        {
            "title": "اسم الحساب",
            "body": "اختر اسم حساب يرتبط بسهولة بعلامتك التجارية والأفضل هو اختيار اسم نشاطك التجاري. وتذكر ألا تتجاوز الحد الأقصى لعدد الأحرف وهو 30 حرفًا.<br><br> تعرف على المزيد عن أسماء الحسابات في <a href='https://help.instagram.com/477434105621119/' target='_blank'>إرشادات المجتمع</a> و<a href='https://help.instagram.com/478745558852511/' target='_blank'>شروط الاستخدام</a>.",
            "strapline": "اسم الحساب",
            "_classes": "",
            "_graphic": {
                "src": "course/en/images/03_tips_for_advertisers/hotImage/account_name.png",
                "alt": "نص بديل",
                "title": "نص العنوان",
                "_classes": ""
            },
            "_top": 7,
            "_left": 20
        },
        {
            "title": "النص",
            "body": "اجعل الشروحات التوضيحية قصيرة ومبتكرة. وقم بتضمين بضع علامات هاشتاج (نوصي بثلاث علامات هاشتاج بحد أقصى حتى لا يفقد المنشور بساطته). اطرح أسئلة لحث الأشخاص على التفاعل.",
            "strapline": "النص",
            "_graphic": {
                "src": "course/en/images/03_tips_for_advertisers/hotImage/text.png",
                "alt": "نص بديل",
                "title": "نص العنوان",
                "_classes": "cols-2 rows-1"
            },
            "_classes": "",
            "_top": 82,
            "_left": 65
        },
        {
            "title": "التعليق والإعجاب",
            "body": "استخدم علامات الهاشتاج والمواقع واستخدم خيار صورك للعثور على صور علامتك التجارية التي نشرها الآخرون على Instagram.",
            "strapline": "التعليق والإعجاب",
            "_graphic": {
                "src": "course/en/images/03_tips_for_advertisers/hotImage/commenting_liking.png",
                "alt": "نص بديل",
                "title": "نص العنوان",
                "_classes": "cols-2 rows-1"
            },
            "_classes": "",
            "_top": 74,
            "_left": 18
        },
        {
            "title": "الدعوة لاتخاذ إجراء",
            "body": "احرص على تضمين دعوة واضحة لاتخاذ إجراء تحقق الهدف الذي تسعى إلى تحقيقه.",
            "strapline": "الدعوة لاتخاذ إجراء",
            "_graphic": {
                "src": "course/en/images/03_tips_for_advertisers/hotImage/cta.png",
                "alt": "نص بديل",
                "title": "نص العنوان",
                "_classes": "cols-2 rows-1"
            },
            "_classes": "",
            "_top": 68,
            "_left": 9
        },
        {
            "title": "الإشارة",
            "body": "قم بتضمين موقع الصورة أو الفيديو عندما يساعد ذلك في مشاركة قصة الصورة. واستخدم ميزة إضافة أشخاص للإشارة إلى حسابات في صورتك إذا كان ذلك سيساعدك على الوصول إلى نطاق أوسع من الجمهور.",
            "strapline": "الإشارة",
            "_graphic": {
                "src": "course/en/images/03_tips_for_advertisers/hotImage/tagging.png",
                "alt": "نص بديل",
                "title": "نص العنوان",
                "_classes": "cols-2 rows-1"
            },
            "_classes": "",
            "_top": 82,
            "_left": 21
        },
        {
            "title": "أدوات الصور",
            "body": "قم بتعديل صورك باستخدام الفلاتر والأدوات الأخرى المتاحة في تطبيق Instagram. تضفي هذه المؤثرات على الصور مظهرًا رائعًا يميز صور \"Instagram\" بوضوح مما يشجع الأشخاص على الاستجابة له.",
            "strapline": "أدوات الصور",
            "_graphic": {
                "src": "course/en/images/03_tips_for_advertisers/hotImage/image_tools.png",
                "alt": "نص بديل",
                "title": "نص العنوان",
                "_classes": "cols-2 rows-1"
            },
            "_classes": "",
            "_top": 60,
            "_left": 80
        },
        {
            "title": "موضوعات الصور",
            "body": "قم بنشر صور ومقاطع فيديو لأجمل اللحظات غير المتوقعة والتي تبدو في الوقت ذاته حقيقية ومباشرة. وسواء كان الموضوع الذي تتناوله يتعلق بشخص أو بشيء، فالتقطه في سياق يعكس هويتك أو وجهة نظرك.",
            "strapline": "موضوعات الصور",
            "_graphic": {
                "src": "course/en/images/03_tips_for_advertisers/hotImage/image_subjects.png",
                "alt": "نص بديل",
                "title": "نص العنوان",
                "_classes": "cols-2 rows-1"
            },
            "_classes": "",
            "_top": 18,
            "_left": 55
        }
    ]
  },
  {
        "_id":"c-125",
        "_parentId":"b-125",
        "_type":"component",
        "_component":"text",
        "_classes":"",
        "_layout":"full",
        "title":"بعض الأمور التي يجب القيام بها أو الأمور التي يجب عدم القيام بها عند نشر الصور على Instagram",
        "displayTitle":"",
        "body":"فيما يلي مجموعة من الأمور التي يجب القيام بها أو الأمور التي يجب عدم القيام بها عند نشر الصور على Instagram.",
        "instruction":"",
        "_pageLevelProgress": {
        "_isEnabled": true
        }
    },
    {
        "_id":"c-126",
        "_parentId":"b-125",
        "_type":"component",
        "_component":"text",
        "_classes":"",
        "_layout":"left",
        "title":"أمور يجب عدم القيام بها",
        "displayTitle":"أمور يجب عدم القيام بها",
        "body":"عدم استخدام صور ذات تركيب مزدحم أو معقد.  لأن هذا النوع من الصور يشتت الانتباه ويغفله المشاهد بسهولة.<br><br>عدم إنشاء محتوى يصبح غير مناسب بسهولة، كالأحداث ذات التواريخ أو التوقيتات المحددة. يسجل الأشخاص دخولهم وخروجهم من تطبيق Instagram، لكننا لا نعلم متى يقومون بذلك على وجه التحديد. ولذلك إذا شاهد جمهورك وقت الظهيرة أو في المساء إعلانًا يشير إلى \"الصباح\"، فقد يكون الإعلان غير مناسب لهم.<br><br>تضمين أي محتوى يخرق أو ينتهك حقوق أي طرف خارجي، بما في ذلك حقوق النشر أو العلامات التجارية أو الخصوصية أو الدعاية أو أي حقوق شخصية أو ملكية أخرى. ويتضمن ذلك الصورة والشرح وأي علامات هاشتاج تقوم بإضافتها.",
        "instruction":"",
        "_pageLevelProgress": {
        "_isEnabled": true
        }
    },
    {
        "_id":"c-127",
        "_parentId":"b-125",
        "_type":"component",
        "_component":"text",
        "_classes":"",
        "_layout":"right",
        "title":"أمور يجب القيام بها",
        "displayTitle":"أمور يجب القيام بها",
        "body":"استخدام الشرح التوضيحي كأداة موجزة لنشر رسالتك.<br><br>التقاط صور يظهر بها شعار نشاطك التجاري على المنتج أو على العبوة.<br><br>التأكد من وجود نقطة تركيز في الصورة حتى تعكس رسالة واضحة.<br><br>إنشاء محتوى يناسب جمهورك المستهدف.  وتذكر أن مرات عرض الإعلاني تتم على مدار اليوم مع ضرورة ألا يتطلب المحتوى المستخدم طريقة تسلسلية لعرضه.<br><br>الحصول على إذن باستخدام محتوى الصور ومقاطع الفيديو التي التقطها آخرون إذا كنت تخطط لاستخدامها في إعلانك.  ويجب الاتفاق على نموذج الإسناد المستخدم بينك وبين الطرف الآخر.",
        "instruction":"",
        "_pageLevelProgress": {
        "_isEnabled": true
        }
    },
    {
        "_id":"c-130",
        "_parentId":"b-130",
        "_type":"component",
        "_component":"text",
        "_classes":"",
        "_layout":"full",
        "title":"أفضل طريقة للحصول على المتابعين والاحتفاظ بهم",
        "displayTitle":"",
        "body":"تذكر أن أفضل طريقة للحصول على المتابعين والاحتفاظ بهم تتمثل في إنشاء محتوى أصلي عالي الجودة يدور حول العلامة التجارية ويرغب أفراد المجتمع في رؤيته على آخر الأخبار لديهم.  يمكنك القيام بذلك عبر مشاركة قصة جاذبة للانتباه باستخدام الصور والشروحات التوضيحية.<br><br>ويمكنك بدء الاستخدام بزيارة <a href='https://business.facebook.com' target='_blank'>business.facebook.com</a> للوصول إلى مدير الأعمال والمطالبة باسم حساب Instagram الخاص بك. وإذا لم يكن لديك حساب مدير أعمال، يمكنك المطالبة باسم حساب Instagram من Power Editor.<br><br>نوصي بالاطلاع على دورات Blueprint التدريبية التي تتناول Instagram.",
        "instruction":"",
        "_pageLevelProgress": {
        "_isEnabled": true
        }
    },
    {
        "_id":"c-140",
        "_parentId":"b-140",
        "_type":"component",
        "_component":"co-jump",
        "_classes":"color-test",
        "_preLinkBody":"والآن سنتناول ",
        "_linkBody":"اختبار مستوى المعرفة",
        "_postLinkBody":".",
        "_link":"#/id/co-20",
        "_graphic":"adapt/css/assets/icon_nextPage.png",
        "_pageLevelProgress": {
            "_isEnabled": false
        }
    },
    {
        "_id":"c-200",
        "_parentId":"b-200",
        "_type":"component",
        "_component":"mcq",
        "_classes":"",
        "_layout":"full",
        "_attempts":1,
        "_questionWeight":1,
        "_isRandom":false,
        "_selectable":2,
        "_setCompletionOn":"inview",
        "title": "سؤال 1 من 4",
        "displayTitle": "سؤال 1 من 4",
        "body": "لماذا ينبغي على الأنشطة التجارية أن تستخدم Instagram في الدعاية؟  (حدد إجابتين)",
        "instruction": "",
        "_items": [
            {
                "text": "تتيح المنصة التي تحتوي على عناصر بصرية بدرجة كبيرة للأنشطة التجارية عرض منتجاتها أو تطبيقاتها أو خدماتها من خلال مشاركة القصص.",
                "_shouldBeSelected":true
            },
            {
                "text": "تحمل إعلانات Instagram إشارة واضحة إلى أنها محتوى إعلاني وتختلف في مظهرها عن باقي محتوى المجتمع، وهو ما يتيح لك جذب انتباه الجمهور.",
                "_shouldBeSelected":false
            },
            {
                "text": "يظهر المحتوى الإعلاني بشكل متناسق في الموجز حيث يشاهد الأشخاص بالفعل محتوى المجتمع الذي يتابعونه.",
                "_shouldBeSelected":true
            },
            {
                "text": "يحقق المعلنون أصحاب القدرات الإنتاجية العالية والعناصر البصرية عالية الجودة أفضل نتائج مقابل الأموال التي ينفقونها.",
                "_shouldBeSelected":false
            }
        ],
        "_feedback":{
            "correct":"الإجابة صحيحة! يجب أن تستخدم الأنشطة التجارية Instagram في الدعاية لأن المحتوى سوف يظهر بشكل متناسق في الموجز حيث يشاهد الأشخاص بالفعل محتوى المجتمع الذي يتابعونه.  كذلك تتيح لهم المنصة التي تحتوي على عناصر بصرية بدرجة كبيرة عرض منتجاتهم أو تطبيقاتهم أو خدماتهم من خلال مشاركة القصص.",
            "_incorrect": {
                "notFinal": "",
                "final": "عذرًا، الإجابة غير صحيحة!  يجب أن تستخدم الأنشطة التجارية Instagram في الدعاية لأن المحتوى سوف يظهر بشكل متناسق في الموجز حيث يشاهد الأشخاص بالفعل محتوى المجتمع الذي يتابعونه.  كذلك تتيح لهم المنصة التي تحتوي على عناصر بصرية بدرجة كبيرة عرض منتجاتهم أو تطبيقاتهم أو خدماتهم من خلال مشاركة القصص."
            },
            "_partlyCorrect": {
                "notFinal": "",
                "final": "يجب أن تستخدم الأنشطة التجارية Instagram في الدعاية لأن المحتوى سوف يظهر بشكل متناسق في الموجز حيث يشاهد الأشخاص بالفعل محتوى المجتمع الذي يتابعونه.  كذلك تتيح لهم المنصة التي تحتوي على عناصر بصرية بدرجة كبيرة عرض منتجاتهم أو تطبيقاتهم أو خدماتهم من خلال مشاركة القصص."
            }
        },
        "_pageLevelProgress": {
            "_isEnabled": true
        }
    },
    {
        "_id":"c-210",
        "_parentId":"b-210",
        "_type":"component",
        "_component":"mcq",
        "_classes":"",
        "_layout":"full",
        "_attempts":1,
        "_questionWeight":1,
        "_isRandom":false,
        "_selectable":2,
        "_setCompletionOn":"inview",
        "title": "سؤال 2 من 4",
        "displayTitle": "سؤال 2 من 4",
        "body": "أي مما يلي يعتبر من أفضل الممارسات الموصى بها للإعلان على Instagram؟  (حدد إجابتين)",
        "instruction": "",
        "_items": [
            {
                "text": "تجنب عرض شعار علامتك التجارية في الصور ومقاطع الفيديو التي تنشرها.",
                "_shouldBeSelected":false
            },
            {
                "text": "استخدم إعلانات جيدة التصميم لتحسين وجود نشاطك التجاري على Instagram.",
                "_shouldBeSelected":true
            },
            {
                "text": "حدد هدفًا واضحًا لحملتك الإعلانية وصمم إعلانك بما يتناسب مع هذا الهدف.",
                "_shouldBeSelected":true
            },
            {
                "text": "أعد استخدام تصميمات موجودة من حملاتك الإعلانية السابقة.",
                "_shouldBeSelected":false
            }
        ],
        "_feedback":{
            "correct":"الإجابة صحيحة!  يجب تحديد هدف واضح لحملتك الإعلانية وتصميم إعلانك بما يتناسب مع هذا الهدف.  ويجب أيضًا استخدام إعلانات جيدة التصميم لتحسين وجود نشاطك التجاري على Instagram.",
            "_incorrect": {
                "notFinal": "",
                "final": "عذرًا، الإجابة غير صحيحة!  يجب تحديد هدف واضح لحملتك الإعلانية وتصميم إعلانك بما يتناسب مع هذا الهدف.  ويجب أيضًا استخدام إعلانات جيدة التصميم لتحسين وجود نشاطك التجاري على Instagram."
            },
            "_partlyCorrect": {
                "notFinal": "",
                "final": "يجب تحديد هدف واضح لحملتك الإعلانية وتصميم إعلانك بما يتناسب مع هذا الهدف.  ويجب أيضًا استخدام إعلانات جيدة التصميم لتحسين وجود نشاطك التجاري على Instagram."
            }
        },
        "_pageLevelProgress": {
            "_isEnabled": true
        }
    },
    {
        "_id":"c-220",
        "_parentId":"b-220",
        "_type":"component",
        "_component":"mcq",
        "_classes":"",
        "_layout":"full",
        "_attempts":1,
        "_questionWeight":1,
        "_isRandom":false,
        "_selectable":2,
        "_setCompletionOn":"inview",
        "title": "سؤال 3 من 4",
        "displayTitle": "سؤال 3 من 4",
        "body": "أي مما يلي يمثل نصائح موصى بها للمعلنين على Instagram؟  (حدد إجابتين)",
        "instruction": "",
        "_items": [
            {
                "text": "التقط صورًا يظهر بها شعار نشاطك التجاري على المنتج أو على العبوة.",
                "_shouldBeSelected":true
            },
            {
                "text": "حقق أقصى استفادة من الإعلان بإنشاء تركيبات معقدة لعرض منتجاتك.",
                "_shouldBeSelected":false
            },
            {
                "text": "تأكد من وجود نقطة تركيز في الصورة حتى تعكس رسالة واضحة.",
                "_shouldBeSelected":true
            },
            {
                "text": "تأكد من إنشاء محتوى يعكس وقتًا محددًا من اليوم ويتعلق بحدث لتوفير سياق لجمهورك.",
                "_shouldBeSelected":false
            }
        ],
        "_feedback":{
            "correct":"الإجابة صحيحة!  إن أمكن، نوصي بالتقاط صور يظهر بها شعار نشاطك التجاري على المنتج أو العبوة والتأكد من وجودة نقطة تركيز قوية بالصور حتى تعكس رسالة واضحة.",
            "_incorrect": {
                "notFinal": "",
                "final": "عذرًا، الإجابة غير صحيحة!  إن أمكن، نوصي بالتقاط صور يظهر بها شعار نشاطك التجاري على المنتج أو العبوة والتأكد من وجودة نقطة تركيز قوية بالصور حتى تعكس رسالة واضحة."
            },
            "_partlyCorrect": {
                "notFinal": "",
                "final": "إن أمكن، نوصي بالتقاط صور يظهر بها شعار نشاطك التجاري على المنتج أو العبوة والتأكد من وجودة نقطة تركيز قوية بالصور حتى تعكس رسالة واضحة."
            }
        },
        "_pageLevelProgress": {
            "_isEnabled": true
        }
    },
    {
        "_id":"c-230",
        "_parentId":"b-230",
        "_type":"component",
        "_component":"mcq",
        "_classes":"",
        "_layout":"full",
        "_attempts":1,
        "_questionWeight":1,
        "_isRandom":false,
        "_selectable":1,
        "_setCompletionOn":"inview",
        "title": "سؤال 4 من 4",
        "displayTitle": "سؤال 4 من 4",
        "body": "ما أنواع الأنشطة التجارية التي تم تصميم إعلانات Instagram لها؟  (اختر إجابة واحدة)",
        "instruction": "",
        "_items": [
            {
                "text": "الأنشطة التجارية الصغيرة",
                "_shouldBeSelected":false
            },
            {
                "text": "كبار المعلنين",
                "_shouldBeSelected":false
            },
            {
                "text": "الوكالات الإعلانية",
                "_shouldBeSelected":false
            },
            {
                "text": "الأنشطة التجارية بمختلف أحجامها",
                "_shouldBeSelected":true
            }
        ],
        "_feedback":{
            "correct":"الإجابة صحيحة!  يمكن للأنشطة التجارية بمختلف أن تستخدم Instagram في الدعاية.",
            "_incorrect": {
                "notFinal": "",
                "final": "عذرًا، الإجابة غير صحيحة!  يمكن للأنشطة التجارية بمختلف أن تستخدم Instagram في الدعاية."
            }
        },
        "_pageLevelProgress": {
            "_isEnabled": true
        }
    },
    {
        "_id":"c-290",
        "_parentId":"b-290",
        "_type":"component",
        "_component":"co-jump",
        "_classes":"color-test",
        "_autoComplete":true,
        "_preLinkBody":"انقر على الزر التالي لإنهاء هذه الدورة التدريبية. ملاحظة: <a href='#'>انقر هنا</a> للتحقق من اكتمال أشرطة الحالة لكل وحدة.<br>",
        "_linkBody":"<div style = 'text-align:center;padding:8px;'><button class='buttons-action'><b>لقد أنهيت هذه الدورة التدريبية</b></button></div><br> ",
        "_postLinkBody":"",
        "_link":"",
        "_pageLevelProgress": {
            "_isEnabled": false
        }
    }
]
